<svg width="60" height="60" viewBox="0 0 60 60" fill="none" xmlns="http://www.w3.org/2000/svg">
<g filter="url(#filter0_d)">
<rect x="10" y="8" width="40" height="40" rx="20" fill="#2F80ED"/>
</g>
<path d="M24.1547 27.5191L24.3315 27.6959L24.1547 27.5191C23.8826 27.7912 23.75 28.1467 23.75 28.502C23.75 28.8573 23.8827 29.2127 24.1547 29.4848L24.1548 29.4849L31.5186 36.8464L31.519 36.8468C32.0594 37.3843 32.9368 37.3844 33.477 36.8468L33.4775 36.8464C34.0175 36.3063 34.0183 35.4259 33.4774 34.8874C33.4773 34.8872 33.4772 34.8871 33.477 34.887L27.0898 28.5019L33.4775 22.1142C34.0179 21.5738 34.0179 20.6957 33.4775 20.1553C32.9371 19.615 32.059 19.6148 31.5186 20.1553C31.5186 20.1553 31.5186 20.1553 31.5186 20.1553L24.1547 27.5191Z" fill="white" stroke="white" stroke-width="0.5"/>
<defs>
<filter id="filter0_d" x="0" y="0" width="60" height="60" filterUnits="userSpaceOnUse" color-interpolation-filters="sRGB">
<feFlood flood-opacity="0" result="BackgroundImageFix"/>
<feColorMatrix in="SourceAlpha" type="matrix" values="0 0 0 0 0 0 0 0 0 0 0 0 0 0 0 0 0 0 127 0"/>
<feOffset dy="2"/>
<feGaussianBlur stdDeviation="5"/>
<feColorMatrix type="matrix" values="0 0 0 0 0 0 0 0 0 0 0 0 0 0 0 0 0 0 0.12 0"/>
<feBlend mode="normal" in2="BackgroundImageFix" result="effect1_dropShadow"/>
<feBlend mode="normal" in="SourceGraphic" in2="effect1_dropShadow" result="shape"/>
</filter>
</defs>
</svg>
