<svg width="12" height="14" viewBox="0 0 12 14" fill="none" xmlns="http://www.w3.org/2000/svg">
<path d="M11.4485 6.64206C11.2629 6.45643 11.0376 6.36369 10.7723 6.36369H10.4543V4.45449C10.4543 3.23482 10.0169 2.18756 9.14188 1.31256C8.26691 0.43752 7.21976 0 5.99991 0C4.78009 0 3.73273 0.43752 2.85783 1.31252C1.98279 2.18756 1.54541 3.23478 1.54541 4.45449V6.36369H1.22728C0.962217 6.36369 0.736788 6.45643 0.551165 6.64206C0.365543 6.82754 0.272766 7.05297 0.272766 7.31828V13.0455C0.272766 13.3105 0.365578 13.536 0.551165 13.7217C0.736788 13.9072 0.962217 14 1.22728 14H10.7725C11.0378 14 11.2631 13.9073 11.4488 13.7217C11.6342 13.536 11.7272 13.3105 11.7272 13.0455V7.31817C11.7273 7.05307 11.6342 6.82768 11.4485 6.64206ZM8.54531 6.36369H3.45451V4.45449C3.45451 3.75188 3.70313 3.15193 4.20027 2.65486C4.69748 2.15772 5.29733 1.9092 6.00001 1.9092C6.70277 1.9092 7.30247 2.15768 7.79972 2.65486C8.29672 3.1519 8.54531 3.75188 8.54531 4.45449V6.36369Z" fill="#d71536"/>
</svg>
