<svg width="33" height="33" viewBox="0 0 33 33" fill="none" xmlns="http://www.w3.org/2000/svg">
<rect width="33" height="33" rx="4" fill="#d71536"/>
<path d="M18.4056 23.6674L19.0796 22.9936C19.3012 22.7601 19.412 22.4874 19.412 22.1761C19.412 21.8584 19.3012 21.5889 19.0796 21.3672L14.7123 17L19.0795 12.6329C19.301 12.4112 19.4119 12.1417 19.4119 11.8241C19.4119 11.5126 19.301 11.24 19.0795 11.0064L18.4054 10.3415C18.1779 10.1138 17.9053 10 17.5877 10C17.2643 10 16.9947 10.1139 16.7791 10.3414L10.9293 16.1912C10.7017 16.407 10.5878 16.6764 10.5878 17C10.5878 17.3175 10.7017 17.5901 10.9293 17.8176L16.7791 23.6674C17.0008 23.8891 17.2703 24 17.5877 24C17.8993 24 18.1718 23.8891 18.4056 23.6674Z" fill="#ffffff"/>
<path d="M18.4056 23.6674L19.0796 22.9936C19.3012 22.7601 19.412 22.4874 19.412 22.1761C19.412 21.8584 19.3012 21.5889 19.0796 21.3672L14.7123 17L19.0795 12.6329C19.301 12.4112 19.4119 12.1417 19.4119 11.8241C19.4119 11.5126 19.301 11.24 19.0795 11.0064L18.4054 10.3415C18.1779 10.1138 17.9053 10 17.5877 10C17.2643 10 16.9947 10.1139 16.7791 10.3414L10.9293 16.1912C10.7017 16.407 10.5878 16.6764 10.5878 17C10.5878 17.3175 10.7017 17.5901 10.9293 17.8176L16.7791 23.6674C17.0008 23.8891 17.2703 24 17.5877 24C17.8993 24 18.1718 23.8891 18.4056 23.6674Z" fill="#ffffff"/>
</svg>