<svg width="1280" height="692" viewBox="0 0 1280 692" fill="none" xmlns="http://www.w3.org/2000/svg">
<path d="M-53.4829 126.706C-53.4829 126.706 257.323 107 595.493 314.668C789.014 433.509 822.074 661.574 1017.68 776.954C1172.55 868.308 1413.28 1092.79 1413.28 1092.79L1524.35 1496.36L-271 531.414L-53.4829 126.706Z" fill="#f6f4ff"/>
</svg>
