<svg width="20" height="12" viewBox="0 0 20 12" fill="none" xmlns="http://www.w3.org/2000/svg">
<path d="M9.99995 11.7004C9.64151 11.7004 9.28311 11.5635 9.00983 11.2904L0.410283 2.69072C-0.136761 2.14368 -0.136761 1.25674 0.410283 0.709921C0.957105 0.163099 1.84387 0.163099 2.39095 0.709921L9.99995 8.31936L17.609 0.710187C18.156 0.163365 19.0427 0.163365 19.5895 0.710187C20.1368 1.25701 20.1368 2.14395 19.5895 2.69099L10.9901 11.2906C10.7166 11.5638 10.3583 11.7004 9.99995 11.7004Z" fill="#093e00"/>
</svg>
