<svg width="153" height="153" viewBox="0 0 153 153" fill="none" xmlns="http://www.w3.org/2000/svg">
<g clip-path="url(#clip0)">
<path d="M77.0275 58.702C77.0275 58.702 88.8353 55.5914 94.3928 59.7483C106.516 68.816 94.3928 84.1612 94.3928 84.1612L66.8704 101.948C66.8704 101.948 55.4745 89.5183 53.4369 79.2786C51.2575 68.326 47.9231 54.1507 58.024 51.0294C68.1811 47.8906 77.0275 58.702 77.0275 58.702Z" fill="#B2FF8C"/>
<path d="M65.4735 103.024C65.8534 103.129 66.2691 103.097 66.6436 102.913C67.962 102.265 98.9496 86.8937 102.095 74.9311C104.22 66.8493 99.0298 58.3626 90.524 56.0132C86.2439 54.831 81.8036 55.3505 78.0691 57.4228C75.9291 53.7283 72.3851 51.003 68.105 49.8208C59.6303 47.4799 51.0082 51.989 48.4758 60.0839C44.2717 73.5155 63.7336 101.212 64.5641 102.385C64.792 102.706 65.1168 102.925 65.4735 103.024ZM89.6432 59.2019C96.4112 61.0713 100.562 67.7511 98.8948 74.091C96.7066 82.4136 75.8343 94.5371 66.4544 99.3079C60.6555 90.8237 48.6909 70.4663 51.6308 61.0729C53.6293 54.6872 60.4774 51.1459 67.2239 53.0094C71.1707 54.0995 74.3316 56.8109 75.894 60.4483C76.2893 61.3718 77.5692 61.7253 78.382 61.1356C81.5919 58.8163 85.6964 58.1117 89.6432 59.2019Z" fill="#172957"/>
<path d="M65.4735 103.024C65.8534 103.129 66.2691 103.097 66.6436 102.913C67.962 102.265 98.9496 86.8937 102.095 74.9311C104.22 66.8493 99.0298 58.3626 90.524 56.0132C86.2439 54.831 81.8036 55.3505 78.0691 57.4228C75.9291 53.7283 72.3851 51.003 68.105 49.8208C59.6303 47.4799 51.0082 51.989 48.4758 60.0839C44.2717 73.5155 63.7336 101.212 64.5641 102.385C64.792 102.706 65.1168 102.925 65.4735 103.024ZM89.6432 59.2019C96.4112 61.0713 100.562 67.7511 98.8948 74.091C96.7066 82.4136 75.8343 94.5371 66.4544 99.3079C60.6555 90.8237 48.6909 70.4663 51.6308 61.0729C53.6293 54.6872 60.4774 51.1459 67.2239 53.0094C71.1707 54.0995 74.3316 56.8109 75.894 60.4483C76.2893 61.3718 77.5692 61.7253 78.382 61.1356C81.5919 58.8163 85.6964 58.1117 89.6432 59.2019Z" stroke="#F4F7FB"/>
<path d="M118.544 62.5192C121.62 63.3691 124.815 61.557 125.665 58.4803C126.515 55.4036 124.703 52.2086 121.626 51.3588C118.55 50.509 115.354 52.321 114.505 55.3977C113.655 58.4744 115.467 61.6694 118.544 62.5192ZM120.745 54.5475C122.064 54.9118 122.841 56.2807 122.476 57.5996C122.112 58.9185 120.743 59.6948 119.424 59.3305C118.105 58.9662 117.329 57.5974 117.693 56.2784C118.058 54.9595 119.427 54.1832 120.745 54.5475Z" fill="#172957"/>
<path d="M118.544 62.5192C121.62 63.3691 124.815 61.557 125.665 58.4803C126.515 55.4036 124.703 52.2086 121.626 51.3588C118.55 50.509 115.354 52.321 114.505 55.3977C113.655 58.4744 115.467 61.6694 118.544 62.5192ZM120.745 54.5475C122.064 54.9118 122.841 56.2807 122.476 57.5996C122.112 58.9185 120.743 59.6948 119.424 59.3305C118.105 58.9662 117.329 57.5974 117.693 56.2784C118.058 54.9595 119.427 54.1832 120.745 54.5475Z" stroke="#F4F7FB"/>
<path d="M35.1198 109.832C38.1965 110.682 41.3916 108.87 42.2414 105.793C43.0912 102.716 41.2792 99.5215 38.2025 98.6716C35.1258 97.8218 31.9308 99.6338 31.081 102.711C30.2311 105.787 32.0431 108.982 35.1198 109.832ZM37.3217 101.86C38.6407 102.225 39.417 103.594 39.0527 104.912C38.6884 106.231 37.3195 107.008 36.0006 106.643C34.6817 106.279 33.9053 104.91 34.2696 103.591C34.634 102.272 36.0028 101.496 37.3217 101.86Z" fill="#172957"/>
<path d="M35.1198 109.832C38.1965 110.682 41.3916 108.87 42.2414 105.793C43.0912 102.716 41.2792 99.5215 38.2025 98.6716C35.1258 97.8218 31.9308 99.6338 31.081 102.711C30.2311 105.787 32.0431 108.982 35.1198 109.832ZM37.3217 101.86C38.6407 102.225 39.417 103.594 39.0527 104.912C38.6884 106.231 37.3195 107.008 36.0006 106.643C34.6817 106.279 33.9053 104.91 34.2696 103.591C34.634 102.272 36.0028 101.496 37.3217 101.86Z" stroke="#F4F7FB"/>
<path d="M87.8955 123.778C86.8985 123.503 86.3135 122.471 86.5889 121.474C86.8643 120.477 87.8958 119.893 88.8927 120.168C89.8897 120.443 90.4747 121.475 90.1993 122.472C89.9239 123.469 88.8925 124.054 87.8955 123.778Z" fill="#172957"/>
<path d="M87.8955 123.778C86.8985 123.503 86.3135 122.471 86.5889 121.474C86.8643 120.477 87.8958 119.893 88.8927 120.168C89.8897 120.443 90.4747 121.475 90.1993 122.472C89.9239 123.469 88.8925 124.054 87.8955 123.778Z" stroke="#F4F7FB"/>
<path d="M96.9922 47.3555C95.9952 47.0801 95.4102 46.0487 95.6856 45.0517C95.961 44.0547 96.9924 43.4697 97.9894 43.7451C98.9864 44.0205 99.5714 45.0519 99.296 46.0489C99.0206 47.0459 97.9892 47.6309 96.9922 47.3555Z" fill="#172957"/>
<path d="M96.9922 47.3555C95.9952 47.0801 95.4102 46.0487 95.6856 45.0517C95.961 44.0547 96.9924 43.4697 97.9894 43.7451C98.9864 44.0205 99.5714 45.0519 99.296 46.0489C99.0206 47.0459 97.9892 47.6309 96.9922 47.3555Z" stroke="#F4F7FB"/>
<path d="M37.7728 56.7381C36.7758 56.4627 36.1908 55.4313 36.4662 54.4343C36.7416 53.4373 37.773 52.8523 38.77 53.1277C39.767 53.4031 40.352 54.4345 40.0766 55.4315C39.8012 56.4285 38.7697 57.0135 37.7728 56.7381Z" fill="#172957"/>
<path d="M37.7728 56.7381C36.7758 56.4627 36.1908 55.4313 36.4662 54.4343C36.7416 53.4373 37.773 52.8523 38.77 53.1277C39.767 53.4031 40.352 54.4345 40.0766 55.4315C39.8012 56.4285 38.7697 57.0135 37.7728 56.7381Z" stroke="#F4F7FB"/>
<path d="M113.147 102.79C113.555 102.903 114.006 102.86 114.403 102.634C115.198 102.184 115.476 101.174 115.026 100.38L110.786 92.9048C110.336 92.1103 109.326 91.8315 108.532 92.2822C107.737 92.7328 107.459 93.742 107.909 94.5366L112.148 102.012C112.374 102.409 112.739 102.677 113.147 102.79Z" fill="#172957"/>
<path d="M113.147 102.79C113.555 102.903 114.006 102.86 114.403 102.634C115.198 102.184 115.476 101.174 115.026 100.38L110.786 92.9048C110.336 92.1103 109.326 91.8315 108.532 92.2822C107.737 92.7328 107.459 93.742 107.909 94.5366L112.148 102.012C112.374 102.409 112.739 102.677 113.147 102.79Z" stroke="#F4F7FB"/>
<path d="M107.289 101.172C107.696 101.285 108.148 101.242 108.545 101.016L116.02 96.7769C116.815 96.3263 117.093 95.3171 116.643 94.5225C116.192 93.728 115.183 93.4492 114.388 93.8998L106.913 98.1392C106.119 98.5898 105.84 99.5991 106.291 100.394C106.516 100.791 106.881 101.059 107.289 101.172Z" fill="#172957"/>
<path d="M107.289 101.172C107.696 101.285 108.148 101.242 108.545 101.016L116.02 96.7769C116.815 96.3263 117.093 95.3171 116.643 94.5225C116.192 93.728 115.183 93.4492 114.388 93.8998L106.913 98.1392C106.119 98.5898 105.84 99.5991 106.291 100.394C106.516 100.791 106.881 101.059 107.289 101.172Z" stroke="#F4F7FB"/>
<path d="M54.6121 35.1425C55.0199 35.2551 55.4711 35.212 55.8683 34.9867C56.6629 34.5361 56.9417 33.5268 56.491 32.7323L52.2516 25.2572C51.801 24.4626 50.7918 24.1838 49.9972 24.6345C49.2027 25.0851 48.9239 26.0943 49.3745 26.8889L53.6134 34.3643C53.8391 34.7617 54.2039 35.0297 54.6121 35.1425Z" fill="#172957"/>
<path d="M54.6121 35.1425C55.0199 35.2551 55.4711 35.212 55.8683 34.9867C56.6629 34.5361 56.9417 33.5268 56.491 32.7323L52.2516 25.2572C51.801 24.4626 50.7918 24.1838 49.9972 24.6345C49.2027 25.0851 48.9239 26.0943 49.3745 26.8889L53.6134 34.3643C53.8391 34.7617 54.2039 35.0297 54.6121 35.1425Z" stroke="#F4F7FB"/>
<path d="M48.7547 33.5246C49.1625 33.6372 49.6137 33.5941 50.0109 33.3688L57.486 29.1294C58.2806 28.6787 58.5594 27.6695 58.1087 26.875C57.6581 26.0804 56.6489 25.8016 55.8543 26.2523L48.3792 30.4917C47.5847 30.9423 47.3059 31.9515 47.7565 32.7461C47.9817 33.1437 48.3469 33.4119 48.7547 33.5246Z" fill="#172957"/>
<path d="M48.7547 33.5246C49.1625 33.6372 49.6137 33.5941 50.0109 33.3688L57.486 29.1294C58.2806 28.6787 58.5594 27.6695 58.1087 26.875C57.6581 26.0804 56.6489 25.8016 55.8543 26.2523L48.3792 30.4917C47.5847 30.9423 47.3059 31.9515 47.7565 32.7461C47.9817 33.1437 48.3469 33.4119 48.7547 33.5246Z" stroke="#F4F7FB"/>
</g>
<defs>
<clipPath id="clip0">
<rect width="124.054" height="124.054" fill="white" transform="matrix(-0.963906 -0.266243 -0.266243 0.963906 152.605 33.0285)"/>
</clipPath>
</defs>
</svg>
